{
  "name": "SQLFluff lint",
  "description": "Lint your SQL files (whichever your dialect) with [SQLFluff](https://docs.sqlfluff.com)",
  "template_path": "templates/gitlab-ci-sqlfluff.yml",
  "kind": "analyse",
  "prefix": "sqlfluff",
  "is_component": true,
  "variables": [
    {
      "name": "SQLFLUFF_IMAGE",
      "description": "The Docker image used to run SQLFluff",
      "default": "registry.hub.docker.com/sqlfluff/sqlfluff:latest"
    },
    {
      "name": "SQLFLUFF_WORKING_DIR",
      "description": "Sqlfluff working directory, scope of configuration and sql files used",
      "default": ".",
      "advanced": true
    },
    {
      "name": "SQLFLUFF_LINT_ARGS",
      "description": "Lint [options and arguments](https://docs.sqlfluff.com/en/stable/cli.html#sqlfluff-lint)",
      "advanced": true
    }
  ]
}
